#ROD_Channel ROC_Channel Straw# HW_addr Board GOL
0 0 31 1 1S 0
0 1 47 1 1S 0
0 2 33 1 1S 0
0 3 63 1 1S 0
0 4 48 1 1S 0
0 5 32 1 1S 0
0 6 49 1 1S 0
0 7 50 1 1S 0
0 8 15 1 1S 0
0 9 0 1 1S 0
0 10 2 1 1S 0
0 11 17 1 1S 0
0 12 16 1 1S 0
0 13 1 1 1S 0
0 14 18 1 1S 0
0 15 34 1 1S 0
2 0 -2 2 1S 0
2 1 -2 2 1S 0
2 2 51 2 1S 0
2 3 36 2 1S 0
2 4 35 2 1S 0
2 5 -2 2 1S 0
2 6 52 2 1S 0
2 7 37 2 1S 0
2 8 3 2 1S 0
2 9 19 2 1S 0
2 10 5 2 1S 0
2 11 20 2 1S 0
2 12 -2 2 1S 0
2 13 4 2 1S 0
2 14 21 2 1S 0
2 15 6 2 1S 0
4 0 22 3 1S 0
4 1 53 3 1S 0
4 2 7 3 1S 0
4 3 38 3 1S 0
4 4 39 3 1S 0
4 5 9 3 1S 0
4 6 55 3 1S 0
4 7 24 3 1S 0
4 8 54 3 1S 0
4 9 23 3 1S 0
4 10 -2 3 1S 0
4 11 8 3 1S 0
4 12 40 3 1S 0
4 13 10 3 1S 0
4 14 56 3 1S 0
4 15 25 3 1S 0
6 0 26 4 1S 0
6 1 27 4 1S 0
6 2 28 4 1S 0
6 3 41 4 1S 0
6 4 14 4 1S 0
6 5 57 4 1S 0
6 6 43 4 1S 0
6 7 11 4 1S 0
6 8 59 4 1S 0
6 9 58 4 1S 0
6 10 29 4 1S 0
6 11 42 4 1S 0
6 12 12 4 1S 0
6 13 30 4 1S 0
6 14 13 4 1S 0
6 15 44 4 1S 0
8 0 71 5 1S 0
8 1 87 5 1S 0
8 2 89 5 1S 0
8 3 104 5 1S 0
8 4 73 5 1S 0
8 5 120 5 1S 0
8 6 138 5 1S 0
8 7 88 5 1S 0
8 8 90 5 1S 0
8 9 105 5 1S 0
8 10 72 5 1S 0
8 11 121 5 1S 0
8 12 74 5 1S 0
8 13 122 5 1S 0
8 14 75 5 1S 0
8 15 106 5 1S 0
10 0 83 6 1S 0
10 1 -2 6 1S 0
10 2 85 6 1S 0
10 3 100 6 1S 0
10 4 69 6 1S 0
10 5 117 6 1S 0
10 6 -2 6 1S 0
10 7 68 6 1S 0
10 8 119 6 1S 0
10 9 118 6 1S 0
10 10 84 6 1S 0
10 11 101 6 1S 0
10 12 70 6 1S 0
10 13 102 6 1S 0
10 14 86 6 1S 0
10 15 103 6 1S 0
12 0 79 7 1S 0
12 1 96 7 1S 0
12 2 64 7 1S 0
12 3 113 7 1S 0
12 4 98 7 1S 0
12 5 66 7 1S 0
12 6 115 7 1S 0
12 7 81 7 1S 0
12 8 114 7 1S 0
12 9 80 7 1S 0
12 10 97 7 1S 0
12 11 65 7 1S 0
12 12 99 7 1S 0
12 13 82 7 1S 0
12 14 116 7 1S 0
12 15 67 7 1S 0
14 0 130 8 1S 0
14 1 182 8 1S 0
14 2 147 8 1S 0
14 3 200 8 1S 0
14 4 166 8 1S 0
14 5 132 8 1S 0
14 6 201 8 1S 0
14 7 148 8 1S 0
14 8 183 8 1S 0
14 9 164 8 1S 0
14 10 165 8 1S 0
14 11 131 8 1S 0
14 12 184 8 1S 0
14 13 149 8 1S 0
14 14 202 8 1S 0
14 15 133 8 1S 0
16 0 150 9 1S 0
16 1 151 9 1S 0
16 2 136 9 1S 0
16 3 167 9 1S 0
16 4 152 9 1S 0
16 5 185 9 1S 0
16 6 187 9 1S 0
16 7 134 9 1S 0
16 8 169 9 1S 0
16 9 186 9 1S 0
16 10 135 9 1S 0
16 11 168 9 1S 0
16 12 153 9 1S 0
16 13 170 9 1S 0
16 14 137 9 1S 0
16 15 188 9 1S 0
18 0 256 10 1S 0
18 1 204 10 1S 0
18 2 311 10 1S 0
18 3 221 10 1S 0
18 4 220 10 1S 0
18 5 254 10 1S 0
18 6 237 10 1S 0
18 7 255 10 1S 0
18 8 203 10 1S 0
18 9 292 10 1S 0
18 10 238 10 1S 0
18 11 274 10 1S 0
18 12 219 10 1S 0
18 13 273 10 1S 0
18 14 218 10 1S 0
18 15 236 10 1S 0
20 0 291 17 1L 0
20 1 272 17 1L 0
20 2 253 17 1L 0
20 3 252 17 1L 0
20 4 289 17 1L 0
20 5 271 17 1L 0
20 6 270 17 1L 0
20 7 251 17 1L 0
20 8 310 17 1L 0
20 9 309 17 1L 0
20 10 308 17 1L 0
20 11 328 17 1L 0
20 12 290 17 1L 0
20 13 327 17 1L 0
20 14 326 17 1L 0
20 15 307 17 1L 0
22 0 288 18 1L 0
22 1 287 18 1L 0
22 2 286 18 1L 0
22 3 267 18 1L 0
22 4 268 18 1L 0
22 5 269 18 1L 0
22 6 285 18 1L 0
22 7 266 18 1L 0
22 8 325 18 1L 0
22 9 306 18 1L 0
22 10 304 18 1L 0
22 11 323 18 1L 0
22 12 324 18 1L 0
22 13 305 18 1L 0
22 14 322 18 1L 0
22 15 303 18 1L 0
24 0 321 19 1L 0
24 1 284 19 1L 0
24 2 302 19 1L 0
24 3 247 19 1L 0
24 4 283 19 1L 0
24 5 282 19 1L 0
24 6 264 19 1L 0
24 7 319 19 1L 0
24 8 246 19 1L 0
24 9 320 19 1L 0
24 10 265 19 1L 0
24 11 301 19 1L 0
24 12 245 19 1L 0
24 13 300 19 1L 0
24 14 263 19 1L 0
24 15 318 19 1L 0
26 0 281 20 1L 0
26 1 244 20 1L 0
26 2 299 20 1L 0
26 3 262 20 1L 0
26 4 223 20 1L 0
26 5 316 20 1L 0
26 6 279 20 1L 0
26 7 298 20 1L 0
26 8 261 20 1L 0
26 9 317 20 1L 0
26 10 243 20 1L 0
26 11 280 20 1L 0
26 12 260 20 1L 0
26 13 278 20 1L 0
26 14 259 20 1L 0
26 15 297 20 1L 0
28 0 315 21 1L 0
28 1 296 21 1L 0
28 2 294 21 1L 0
28 3 222 21 1L 0
28 4 312 21 1L 0
28 5 240 21 1L 0
28 6 239 21 1L 0
28 7 314 21 1L 0
28 8 276 21 1L 0
28 9 258 21 1L 0
28 10 295 21 1L 0
28 11 277 21 1L 0
28 12 313 21 1L 0
28 13 257 21 1L 0
28 14 293 21 1L 0
28 15 275 21 1L 0
30 0 209 22 1L 0
30 1 208 22 1L 0
30 2 242 22 1L 0
30 3 174 22 1L 0
30 4 207 22 1L 0
30 5 191 22 1L 0
30 6 171 22 1L 0
30 7 226 22 1L 0
30 8 189 22 1L 0
30 9 190 22 1L 0
30 10 225 22 1L 0
30 11 172 22 1L 0
30 12 224 22 1L 0
30 13 206 22 1L 0
30 14 241 22 1L 0
30 15 205 22 1L 0
32 0 231 23 1L 0
32 1 248 23 1L 0
32 2 211 23 1L 0
32 3 213 23 1L 0
32 4 228 23 1L 0
32 5 195 23 1L 0
32 6 176 23 1L 0
32 7 230 23 1L 0
32 8 193 23 1L 0
32 9 194 23 1L 0
32 10 229 23 1L 0
32 11 212 23 1L 0
32 12 210 23 1L 0
32 13 175 23 1L 0
32 14 227 23 1L 0
32 15 192 23 1L 0
34 0 235 24 1L 0
34 1 217 24 1L 0
34 2 234 24 1L 0
34 3 199 24 1L 0
34 4 215 24 1L 0
34 5 232 24 1L 0
34 6 197 24 1L 0
34 7 216 24 1L 0
34 8 198 24 1L 0
34 9 233 24 1L 0
34 10 181 24 1L 0
34 11 250 24 1L 0
34 12 180 24 1L 0
34 13 214 24 1L 0
34 14 196 24 1L 0
34 15 249 24 1L 0
36 0 179 25 1L 0
36 1 163 25 1L 0
36 2 160 25 1L 0
36 3 146 25 1L 0
36 4 129 25 1L 0
36 5 178 25 1L 0
36 6 128 25 1L 0
36 7 144 25 1L 0
36 8 145 25 1L 0
36 9 162 25 1L 0
36 10 112 25 1L 0
36 11 161 25 1L 0
36 12 127 25 1L 0
36 13 177 25 1L 0
36 14 143 25 1L 0
36 15 159 25 1L 0
38 0 142 26 1L 0
38 1 158 26 1L 0
38 2 173 26 1L 0
38 3 126 26 1L 0
38 4 156 26 1L 0
38 5 125 26 1L 0
38 6 107 26 1L 0
38 7 157 26 1L 0
38 8 124 26 1L 0
38 9 108 26 1L 0
38 10 140 26 1L 0
38 11 141 26 1L 0
38 12 154 26 1L 0
38 13 123 26 1L 0
38 14 155 26 1L 0
38 15 139 26 1L 0
40 0 91 27 1L 0
40 1 60 27 1L 0
40 2 92 27 1L 0
40 3 45 27 1L 0
40 4 110 27 1L 0
40 5 94 27 1L 0
40 6 77 27 1L 0
40 7 93 27 1L 0
40 8 109 27 1L 0
40 9 111 27 1L 0
40 10 46 27 1L 0
40 11 95 27 1L 0
40 12 76 27 1L 0
40 13 61 27 1L 0
40 14 62 27 1L 0
40 15 78 27 1L 0
42 0 364 1 2S 1
42 1 344 1 2S 1
42 2 347 1 2S 1
42 3 346 1 2S 1
42 4 345 1 2S 1
42 5 384 1 2S 1
42 6 365 1 2S 1
42 7 405 1 2S 1
42 8 366 1 2S 1
42 9 406 1 2S 1
42 10 367 1 2S 1
42 11 386 1 2S 1
42 12 385 1 2S 1
42 13 427 1 2S 1
42 14 387 1 2S 1
42 15 407 1 2S 1
44 0 360 2 2S 1
44 1 380 2 2S 1
44 2 343 2 2S 1
44 3 400 2 2S 1
44 4 342 2 2S 1
44 5 401 2 2S 1
44 6 341 2 2S 1
44 7 382 2 2S 1
44 8 361 2 2S 1
44 9 404 2 2S 1
44 10 402 2 2S 1
44 11 381 2 2S 1
44 12 362 2 2S 1
44 13 383 2 2S 1
44 14 363 2 2S 1
44 15 403 2 2S 1
46 0 356 3 2S 1
46 1 376 3 2S 1
46 2 337 3 2S 1
46 3 397 3 2S 1
46 4 339 3 2S 1
46 5 398 3 2S 1
46 6 358 3 2S 1
46 7 378 3 2S 1
46 8 357 3 2S 1
46 9 377 3 2S 1
46 10 338 3 2S 1
46 11 416 3 2S 1
46 12 399 3 2S 1
46 13 379 3 2S 1
46 14 359 3 2S 1
46 15 340 3 2S 1
48 0 333 4 2S 1
48 1 372 4 2S 1
48 2 353 4 2S 1
48 3 371 4 2S 1
48 4 335 4 2S 1
48 5 395 4 2S 1
48 6 354 4 2S 1
48 7 396 4 2S 1
48 8 373 4 2S 1
48 9 394 4 2S 1
48 10 352 4 2S 1
48 11 374 4 2S 1
48 12 334 4 2S 1
48 13 375 4 2S 1
48 14 355 4 2S 1
48 15 336 4 2S 1
50 0 330 5 2S 1
50 1 369 5 2S 1
50 2 329 5 2S 1
50 3 370 5 2S 1
50 4 331 5 2S 1
50 5 412 5 2S 1
50 6 351 5 2S 1
50 7 393 5 2S 1
50 8 392 5 2S 1
50 9 391 5 2S 1
50 10 348 5 2S 1
50 11 431 5 2S 1
50 12 432 5 2S 1
50 13 349 5 2S 1
50 14 350 5 2S 1
50 15 332 5 2S 1
52 0 474 6 2S 1
52 1 476 6 2S 1
52 2 433 6 2S 1
52 3 497 6 2S 1
52 4 453 6 2S 1
52 5 478 6 2S 1
52 6 455 6 2S 1
52 7 477 6 2S 1
52 8 475 6 2S 1
52 9 498 6 2S 1
52 10 435 6 2S 1
52 11 519 6 2S 1
52 12 454 6 2S 1
52 13 436 6 2S 1
52 14 434 6 2S 1
52 15 413 6 2S 1
54 0 457 7 2S 1
54 1 456 7 2S 1
54 2 415 7 2S 1
54 3 479 7 2S 1
54 4 438 7 2S 1
54 5 480 7 2S 1
54 6 417 7 2S 1
54 7 459 7 2S 1
54 8 458 7 2S 1
54 9 414 7 2S 1
54 10 437 7 2S 1
54 11 499 7 2S 1
54 12 481 7 2S 1
54 13 460 7 2S 1
54 14 418 7 2S 1
54 15 439 7 2S 1
56 0 419 8 2S 1
56 1 482 8 2S 1
56 2 440 8 2S 1
56 3 461 8 2S 1
56 4 442 8 2S 1
56 5 484 8 2S 1
56 6 421 8 2S 1
56 7 463 8 2S 1
56 8 420 8 2S 1
56 9 462 8 2S 1
56 10 441 8 2S 1
56 11 483 8 2S 1
56 12 464 8 2S 1
56 13 485 8 2S 1
56 14 422 8 2S 1
56 15 443 8 2S 1
58 0 423 9 2S 1
58 1 486 9 2S 1
58 2 444 9 2S 1
58 3 465 9 2S 1
58 4 426 9 2S 1
58 5 467 9 2S 1
58 6 425 9 2S 1
58 7 488 9 2S 1
58 8 487 9 2S 1
58 9 466 9 2S 1
58 10 424 9 2S 1
58 11 468 9 2S 1
58 12 445 9 2S 1
58 13 447 9 2S 1
58 14 489 9 2S 1
58 15 446 9 2S 1
60 0 528 10 2S 1
60 1 571 10 2S 1
60 2 507 10 2S 1
60 3 549 10 2S 1
60 4 509 10 2S 1
60 5 573 10 2S 1
60 6 530 10 2S 1
60 7 551 10 2S 1
60 8 550 10 2S 1
60 9 529 10 2S 1
60 10 572 10 2S 1
60 11 574 10 2S 1
60 12 508 10 2S 1
60 13 531 10 2S 1
60 14 552 10 2S 1
60 15 510 10 2S 1
62 0 524 11 2S 1
62 1 545 11 2S 1
62 2 525 11 2S 1
62 3 567 11 2S 1
62 4 505 11 2S 1
62 5 569 11 2S 1
62 6 526 11 2S 1
62 7 547 11 2S 1
62 8 568 11 2S 1
62 9 546 11 2S 1
62 10 503 11 2S 1
62 11 570 11 2S 1
62 12 548 11 2S 1
62 13 506 11 2S 1
62 14 504 11 2S 1
62 15 527 11 2S 1
64 0 500 12 2S 1
64 1 542 12 2S 1
64 2 520 12 2S 1
64 3 543 12 2S 1
64 4 501 12 2S 1
64 5 587 12 2S 1
64 6 522 12 2S 1
64 7 566 12 2S 1
64 8 565 12 2S 1
64 9 541 12 2S 1
64 10 564 12 2S 1
64 11 588 12 2S 1
64 12 544 12 2S 1
64 13 502 12 2S 1
64 14 521 12 2S 1
64 15 523 12 2S 1
66 0 589 13 2S 1
66 1 656 13 2S 1
66 2 611 13 2S 1
66 3 634 13 2S 1
66 4 681 13 2S 1
66 5 635 13 2S 1
66 6 591 13 2S 1
66 7 657 13 2S 1
66 8 680 13 2S 1
66 9 613 13 2S 1
66 10 612 13 2S 1
66 11 658 13 2S 1
66 12 590 13 2S 1
66 13 614 13 2S 1
66 14 636 13 2S 1
66 15 592 13 2S 1
68 0 615 14 2S 1
68 1 659 14 2S 1
68 2 637 14 2S 1
68 3 593 14 2S 1
68 4 617 14 2S 1
68 5 661 14 2S 1
68 6 639 14 2S 1
68 7 638 14 2S 1
68 8 595 14 2S 1
68 9 660 14 2S 1
68 10 616 14 2S 1
68 11 662 14 2S 1
68 12 594 14 2S 1
68 13 640 14 2S 1
68 14 618 14 2S 1
68 15 596 14 2S 1
70 0 754 15 2S 1
70 1 731 15 2S 1
70 2 708 15 2S 1
70 3 729 15 2S 1
70 4 753 15 2S 1
70 5 685 15 2S 1
70 6 777 15 2S 1
70 7 683 15 2S 1
70 8 730 15 2S 1
70 9 706 15 2S 1
70 10 707 15 2S 1
70 11 684 15 2S 1
70 12 752 15 2S 1
70 13 776 15 2S 1
70 14 682 15 2S 1
70 15 705 15 2S 1
72 0 805 17 2L1 2
72 1 781 17 2L1 2
72 2 803 17 2L1 2
72 3 827 17 2L1 2
72 4 828 17 2L1 2
72 5 804 17 2L1 2
72 6 826 17 2L1 2
72 7 758 17 2L1 2
72 8 757 17 2L1 2
72 9 802 17 2L1 2
72 10 779 17 2L1 2
72 11 778 17 2L1 2
72 12 732 17 2L1 2
72 13 755 17 2L1 2
72 14 756 17 2L1 2
72 15 780 17 2L1 2
74 0 809 18 2L1 2
74 1 832 18 2L1 2
74 2 830 18 2L1 2
74 3 762 18 2L1 2
74 4 785 18 2L1 2
74 5 807 18 2L1 2
74 6 760 18 2L1 2
74 7 783 18 2L1 2
74 8 784 18 2L1 2
74 9 808 18 2L1 2
74 10 761 18 2L1 2
74 11 831 18 2L1 2
74 12 759 18 2L1 2
74 13 806 18 2L1 2
74 14 782 18 2L1 2
74 15 829 18 2L1 2
76 0 837 19 2L1 2
76 1 765 19 2L1 2
76 2 813 19 2L1 2
76 3 789 19 2L1 2
76 4 834 19 2L1 2
76 5 812 19 2L1 2
76 6 787 19 2L1 2
76 7 811 19 2L1 2
76 8 764 19 2L1 2
76 9 836 19 2L1 2
76 10 788 19 2L1 2
76 11 763 19 2L1 2
76 12 786 19 2L1 2
76 13 835 19 2L1 2
76 14 833 19 2L1 2
76 15 810 19 2L1 2
78 0 817 20 2L1 2
78 1 769 20 2L1 2
78 2 840 20 2L1 2
78 3 792 20 2L1 2
78 4 838 20 2L1 2
78 5 767 20 2L1 2
78 6 815 20 2L1 2
78 7 -2 20 2L1 2
78 8 791 20 2L1 2
78 9 816 20 2L1 2
78 10 768 20 2L1 2
78 11 790 20 2L1 2
78 12 766 20 2L1 2
78 13 839 20 2L1 2
78 14 -2 20 2L1 2
78 15 814 20 2L1 2
80 0 821 21 2L1 2
80 1 796 21 2L1 2
80 2 844 21 2L1 2
80 3 772 21 2L1 2
80 4 842 21 2L1 2
80 5 794 21 2L1 2
80 6 819 21 2L1 2
80 7 749 21 2L1 2
80 8 771 21 2L1 2
80 9 795 21 2L1 2
80 10 820 21 2L1 2
80 11 843 21 2L1 2
80 12 793 21 2L1 2
80 13 818 21 2L1 2
80 14 770 21 2L1 2
80 15 841 21 2L1 2
82 0 825 22 2L1 2
82 1 800 22 2L1 2
82 2 848 22 2L1 2
82 3 799 22 2L1 2
82 4 775 22 2L1 2
82 5 847 22 2L1 2
82 6 797 22 2L1 2
82 7 823 22 2L1 2
82 8 798 22 2L1 2
82 9 801 22 2L1 2
82 10 824 22 2L1 2
82 11 774 22 2L1 2
82 12 773 22 2L1 2
82 13 845 22 2L1 2
82 14 846 22 2L1 2
82 15 822 22 2L1 2
84 0 728 23 2L1 2
84 1 703 23 2L1 2
84 2 727 23 2L1 2
84 3 751 23 2L1 2
84 4 702 23 2L1 2
84 5 678 23 2L1 2
84 6 704 23 2L1 2
84 7 679 23 2L1 2
84 8 701 23 2L1 2
84 9 748 23 2L1 2
84 10 677 23 2L1 2
84 11 725 23 2L1 2
84 12 726 23 2L1 2
84 13 724 23 2L1 2
84 14 747 23 2L1 2
84 15 750 23 2L1 2
86 0 723 24 2L1 2
86 1 746 24 2L1 2
86 2 700 24 2L1 2
86 3 744 24 2L1 2
86 4 721 24 2L1 2
86 5 676 24 2L1 2
86 6 698 24 2L1 2
86 7 674 24 2L1 2
86 8 675 24 2L1 2
86 9 722 24 2L1 2
86 10 699 24 2L1 2
86 11 745 24 2L1 2
86 12 697 24 2L1 2
86 13 720 24 2L1 2
86 14 673 24 2L1 2
86 15 743 24 2L1 2
88 0 -2 25 2L1 2
88 1 670 25 2L1 2
88 2 -2 25 2L1 2
88 3 -2 25 2L1 2
88 4 -2 25 2L1 2
88 5 -2 25 2L1 2
88 6 695 25 2L1 2
88 7 742 25 2L1 2
88 8 718 25 2L1 2
88 9 694 25 2L1 2
88 10 741 25 2L1 2
88 11 671 25 2L1 2
88 12 719 25 2L1 2
88 13 672 25 2L1 2
88 14 -2 25 2L1 2
88 15 696 25 2L1 2
90 0 717 26 2L2 2
90 1 740 26 2L2 2
90 2 693 26 2L2 2
90 3 716 26 2L2 2
90 4 668 26 2L2 2
90 5 714 26 2L2 2
90 6 691 26 2L2 2
90 7 738 26 2L2 2
90 8 692 26 2L2 2
90 9 739 26 2L2 2
90 10 669 26 2L2 2
90 11 667 26 2L2 2
90 12 715 26 2L2 2
90 13 690 26 2L2 2
90 14 737 26 2L2 2
90 15 713 26 2L2 2
92 0 712 27 2L2 2
92 1 736 27 2L2 2
92 2 734 27 2L2 2
92 3 666 27 2L2 2
92 4 709 27 2L2 2
92 5 689 27 2L2 2
92 6 664 27 2L2 2
92 7 711 27 2L2 2
92 8 687 27 2L2 2
92 9 688 27 2L2 2
92 10 735 27 2L2 2
92 11 665 27 2L2 2
92 12 686 27 2L2 2
92 13 710 27 2L2 2
92 14 663 27 2L2 2
92 15 733 27 2L2 2
94 0 622 28 2L2 2
94 1 644 28 2L2 2
94 2 641 28 2L2 2
94 3 620 28 2L2 2
94 4 621 28 2L2 2
94 5 643 28 2L2 2
94 6 619 28 2L2 2
94 7 577 28 2L2 2
94 8 554 28 2L2 2
94 9 553 28 2L2 2
94 10 642 28 2L2 2
94 11 598 28 2L2 2
94 12 576 28 2L2 2
94 13 599 28 2L2 2
94 14 597 28 2L2 2
94 15 575 28 2L2 2
96 0 648 29 2L2 1
96 1 626 29 2L2 1
96 2 581 29 2L2 1
96 3 646 29 2L2 1
96 4 603 29 2L2 1
96 5 624 29 2L2 1
96 6 579 29 2L2 1
96 7 601 29 2L2 1
96 8 602 29 2L2 1
96 9 625 29 2L2 1
96 10 580 29 2L2 1
96 11 578 29 2L2 1
96 12 647 29 2L2 1
96 13 600 29 2L2 1
96 14 623 29 2L2 1
96 15 645 29 2L2 1
98 0 563 30 2L2 1
98 1 606 30 2L2 1
98 2 627 30 2L2 1
98 3 584 30 2L2 1
98 4 562 30 2L2 1
98 5 583 30 2L2 1
98 6 650 30 2L2 1
98 7 560 30 2L2 1
98 8 561 30 2L2 1
98 9 605 30 2L2 1
98 10 540 30 2L2 1
98 11 582 30 2L2 1
98 12 628 30 2L2 1
98 13 604 30 2L2 1
98 14 559 30 2L2 1
98 15 649 30 2L2 1
100 0 655 31 2L2 1
100 1 610 31 2L2 1
100 2 632 31 2L2 1
100 3 633 31 2L2 1
100 4 631 31 2L2 1
100 5 608 31 2L2 1
100 6 586 31 2L2 1
100 7 609 31 2L2 1
100 8 652 31 2L2 1
100 9 585 31 2L2 1
100 10 630 31 2L2 1
100 11 607 31 2L2 1
100 12 654 31 2L2 1
100 13 653 31 2L2 1
100 14 651 31 2L2 1
100 15 629 31 2L2 1
102 0 517 32 2L2 1
102 1 518 32 2L2 1
102 2 496 32 2L2 1
102 3 473 32 2L2 1
102 4 537 32 2L2 1
102 5 515 32 2L2 1
102 6 493 32 2L2 1
102 7 516 32 2L2 1
102 8 495 32 2L2 1
102 9 472 32 2L2 1
102 10 539 32 2L2 1
102 11 538 32 2L2 1
102 12 471 32 2L2 1
102 13 494 32 2L2 1
102 14 558 32 2L2 1
102 15 536 32 2L2 1
104 0 557 49 2L2 1
104 1 535 49 2L2 1
104 2 533 49 2L2 1
104 3 514 49 2L2 1
104 4 534 49 2L2 1
104 5 470 49 2L2 1
104 6 513 49 2L2 1
104 7 491 49 2L2 1
104 8 511 49 2L2 1
104 9 469 49 2L2 1
104 10 556 49 2L2 1
104 11 492 49 2L2 1
104 12 532 49 2L2 1
104 13 512 49 2L2 1
104 14 555 49 2L2 1
104 15 490 49 2L2 1
106 0 408 50 2L2 1
106 1 388 50 2L2 1
106 2 389 50 2L2 1
106 3 449 50 2L2 1
106 4 448 50 2L2 1
106 5 450 50 2L2 1
106 6 410 50 2L2 1
106 7 430 50 2L2 1
106 8 429 50 2L2 1
106 9 409 50 2L2 1
106 10 428 50 2L2 1
106 11 368 50 2L2 1
106 12 451 50 2L2 1
106 13 452 50 2L2 1
106 14 390 50 2L2 1
106 15 411 50 2L2 1
1 0 872 1 3S1 3
1 1 896 1 3S1 3
1 2 944 1 3S1 3
1 3 920 1 3S1 3
1 4 873 1 3S1 3
1 5 898 1 3S1 3
1 6 851 1 3S1 3
1 7 921 1 3S1 3
1 8 897 1 3S1 3
1 9 922 1 3S1 3
1 10 874 1 3S1 3
1 11 899 1 3S1 3
1 12 849 1 3S1 3
1 13 850 1 3S1 3
1 14 875 1 3S1 3
1 15 852 1 3S1 3
3 0 876 2 3S1 3
3 1 853 2 3S1 3
3 2 900 2 3S1 3
3 3 923 2 3S1 3
3 4 855 2 3S1 3
3 5 925 2 3S1 3
3 6 878 2 3S1 3
3 7 902 2 3S1 3
3 8 901 2 3S1 3
3 9 924 2 3S1 3
3 10 877 2 3S1 3
3 11 926 2 3S1 3
3 12 854 2 3S1 3
3 13 903 2 3S1 3
3 14 879 2 3S1 3
3 15 856 2 3S1 3
5 0 880 3 3S1 3
5 1 857 3 3S1 3
5 2 859 3 3S1 3
5 3 927 3 3S1 3
5 4 882 3 3S1 3
5 5 904 3 3S1 3
5 6 881 3 3S1 3
5 7 929 3 3S1 3
5 8 858 3 3S1 3
5 9 906 3 3S1 3
5 10 883 3 3S1 3
5 11 905 3 3S1 3
5 12 928 3 3S1 3
5 13 930 3 3S1 3
5 14 860 3 3S1 3
5 15 907 3 3S1 3
7 0 931 4 3S1 3
7 1 908 4 3S1 3
7 2 884 4 3S1 3
7 3 933 4 3S1 3
7 4 910 4 3S1 3
7 5 909 4 3S1 3
7 6 861 4 3S1 3
7 7 932 4 3S1 3
7 8 -2 4 3S1 3
7 9 934 4 3S1 3
7 10 886 4 3S1 3
7 11 -2 4 3S1 3
7 12 887 4 3S1 3
7 13 885 4 3S1 3
7 14 863 4 3S1 3
7 15 862 4 3S1 3
9 0 864 5 3S1 3
9 1 888 5 3S1 3
9 2 935 5 3S1 3
9 3 911 5 3S1 3
9 4 890 5 3S1 3
9 5 913 5 3S1 3
9 6 866 5 3S1 3
9 7 961 5 3S1 3
9 8 936 5 3S1 3
9 9 912 5 3S1 3
9 10 865 5 3S1 3
9 11 937 5 3S1 3
9 12 889 5 3S1 3
9 13 914 5 3S1 3
9 14 867 5 3S1 3
9 15 891 5 3S1 3
11 0 892 6 3S1 3
11 1 869 6 3S1 3
11 2 895 6 3S1 3
11 3 938 6 3S1 3
11 4 894 6 3S1 3
11 5 915 6 3S1 3
11 6 868 6 3S1 3
11 7 939 6 3S1 3
11 8 964 6 3S1 3
11 9 916 6 3S1 3
11 10 893 6 3S1 3
11 11 963 6 3S1 3
11 12 940 6 3S1 3
11 13 917 6 3S1 3
11 14 870 6 3S1 3
11 15 871 6 3S1 3
13 0 959 7 3S1 2
13 1 960 7 3S1 2
13 2 1034 7 3S1 2
13 3 1035 7 3S1 2
13 4 985 7 3S1 2
13 5 1011 7 3S1 2
13 6 962 7 3S1 2
13 7 1012 7 3S1 2
13 8 1033 7 3S1 2
13 9 1009 7 3S1 2
13 10 984 7 3S1 2
13 11 1010 7 3S1 2
13 12 1060 7 3S1 2
13 13 1036 7 3S1 2
13 14 986 7 3S1 2
13 15 987 7 3S1 2
15 0 980 8 3S1 2
15 1 956 8 3S1 2
15 2 1030 8 3S1 2
15 3 1005 8 3S1 2
15 4 982 8 3S1 2
15 5 1031 8 3S1 2
15 6 -2 8 3S1 2
15 7 1008 8 3S1 2
15 8 1007 8 3S1 2
15 9 1006 8 3S1 2
15 10 981 8 3S1 2
15 11 1059 8 3S1 2
15 12 957 8 3S1 2
15 13 1032 8 3S1 2
15 14 958 8 3S1 2
15 15 983 8 3S1 2
17 0 952 9 3S1 2
17 1 953 9 3S1 2
17 2 1026 9 3S1 2
17 3 1001 9 3S1 2
17 4 -2 9 3S1 2
17 5 1003 9 3S1 2
17 6 954 9 3S1 2
17 7 1028 9 3S1 2
17 8 1027 9 3S1 2
17 9 1002 9 3S1 2
17 10 977 9 3S1 2
17 11 1004 9 3S1 2
17 12 978 9 3S1 2
17 13 1029 9 3S1 2
17 14 979 9 3S1 2
17 15 955 9 3S1 2
19 0 972 10 3S1 2
19 1 949 10 3S1 2
19 2 1022 10 3S1 2
19 3 997 10 3S1 2
19 4 951 10 3S1 2
19 5 999 10 3S1 2
19 6 950 10 3S1 2
19 7 1024 10 3S1 2
19 8 1023 10 3S1 2
19 9 998 10 3S1 2
19 10 973 10 3S1 2
19 11 1000 10 3S1 2
19 12 974 10 3S1 2
19 13 1025 10 3S1 2
19 14 975 10 3S1 2
19 15 976 10 3S1 2
21 0 968 11 3S1 2
21 1 969 11 3S1 2
21 2 994 11 3S1 2
21 3 993 11 3S1 2
21 4 947 11 3S1 2
21 5 995 11 3S1 2
21 6 970 11 3S1 2
21 7 1020 11 3S1 2
21 8 1019 11 3S1 2
21 9 1018 11 3S1 2
21 10 946 11 3S1 2
21 11 996 11 3S1 2
21 12 945 11 3S1 2
21 13 1021 11 3S1 2
21 14 971 11 3S1 2
21 15 948 11 3S1 2
23 0 1043 12 3S2 2
23 1 1068 12 3S2 2
23 2 1119 12 3S2 2
23 3 1093 12 3S2 2
23 4 1070 12 3S2 2
23 5 1095 12 3S2 2
23 6 1045 12 3S2 2
23 7 1121 12 3S2 2
23 8 1120 12 3S2 2
23 9 1094 12 3S2 2
23 10 1044 12 3S2 2
23 11 1096 12 3S2 2
23 12 1069 12 3S2 2
23 13 1122 12 3S2 2
23 14 1046 12 3S2 2
23 15 1071 12 3S2 2
25 0 1072 13 3S2 2
25 1 1048 13 3S2 2
25 2 1123 13 3S2 2
25 3 1097 13 3S2 2
25 4 1074 13 3S2 2
25 5 1099 13 3S2 2
25 6 1049 13 3S2 2
25 7 1125 13 3S2 2
25 8 1124 13 3S2 2
25 9 1098 13 3S2 2
25 10 1073 13 3S2 2
25 11 1100 13 3S2 2
25 12 1047 13 3S2 2
25 13 1126 13 3S2 2
25 14 1050 13 3S2 2
25 15 1075 13 3S2 2
27 0 1051 14 3S2 2
27 1 -2 14 3S2 2
27 2 1076 14 3S2 2
27 3 1101 14 3S2 2
27 4 1078 14 3S2 2
27 5 1128 14 3S2 2
27 6 1053 14 3S2 2
27 7 1103 14 3S2 2
27 8 1052 14 3S2 2
27 9 1102 14 3S2 2
27 10 1077 14 3S2 2
27 11 1127 14 3S2 2
27 12 1079 14 3S2 2
27 13 1129 14 3S2 2
27 14 1054 14 3S2 2
27 15 1130 14 3S2 2
29 0 1080 15 3S2 2
29 1 1081 15 3S2 2
29 2 1058 15 3S2 2
29 3 1131 15 3S2 2
29 4 1104 15 3S2 2
29 5 1106 15 3S2 2
29 6 1056 15 3S2 2
29 7 1084 15 3S2 2
29 8 1109 15 3S2 2
29 9 1105 15 3S2 2
29 10 1055 15 3S2 2
29 11 1108 15 3S2 2
29 12 1082 15 3S2 2
29 13 1107 15 3S2 2
29 14 1083 15 3S2 2
29 15 1057 15 3S2 2
31 0 1154 16 3S2 2
31 1 1155 16 3S2 2
31 2 1159 16 3S2 2
31 3 1180 16 3S2 2
31 4 1156 16 3S2 2
31 5 1206 16 3S2 2
31 6 1234 16 3S2 2
31 7 1182 16 3S2 2
31 8 1132 16 3S2 2
31 9 1207 16 3S2 2
31 10 1133 16 3S2 2
31 11 1181 16 3S2 2
31 12 1183 16 3S2 2
31 13 1208 16 3S2 2
31 14 1157 16 3S2 2
31 15 1158 16 3S2 2
33 0 1150 17 3S2 2
33 1 1176 17 3S2 2
33 2 1178 17 3S2 2
33 3 1201 17 3S2 2
33 4 1202 17 3S2 2
33 5 1229 17 3S2 2
33 6 1152 17 3S2 2
33 7 1204 17 3S2 2
33 8 1203 17 3S2 2
33 9 1228 17 3S2 2
33 10 1151 17 3S2 2
33 11 1177 17 3S2 2
33 12 1230 17 3S2 2
33 13 1205 17 3S2 2
33 14 1153 17 3S2 2
33 15 1179 17 3S2 2
35 0 1175 18 3S2 2
35 1 1200 18 3S2 2
35 2 1148 18 3S2 2
35 3 1149 18 3S2 2
35 4 1198 18 3S2 2
35 5 1146 18 3S2 2
35 6 1224 18 3S2 2
35 7 1172 18 3S2 2
35 8 1173 18 3S2 2
35 9 1147 18 3S2 2
35 10 1174 18 3S2 2
35 11 1171 18 3S2 2
35 12 1199 18 3S2 2
35 13 1145 18 3S2 2
35 14 1223 18 3S2 2
35 15 1197 18 3S2 2
37 0 1308 19 3S2 2
37 1 1281 19 3S2 2
37 2 1252 19 3S2 2
37 3 1255 19 3S2 2
37 4 1254 19 3S2 2
37 5 1226 19 3S2 2
37 6 1279 19 3S2 2
37 7 1225 19 3S2 2
37 8 1253 19 3S2 2
37 9 1227 19 3S2 2
37 10 1307 19 3S2 2
37 11 1251 19 3S2 2
37 12 1280 19 3S2 2
37 13 1250 19 3S2 2
37 14 1278 19 3S2 2
37 15 1277 19 3S2 2
39 0 1256 20 3S2 2
39 1 1257 20 3S2 2
39 2 1282 20 3S2 2
39 3 1283 20 3S2 2
39 4 1260 20 3S2 2
39 5 1285 20 3S2 2
39 6 1232 20 3S2 2
39 7 1312 20 3S2 2
39 8 1311 20 3S2 2
39 9 1284 20 3S2 2
39 10 1231 20 3S2 2
39 11 1286 20 3S2 2
39 12 1258 20 3S2 2
39 13 1233 20 3S2 2
39 14 1287 20 3S2 2
39 15 1259 20 3S2 2
41 0 1335 21 3S2 2
41 1 1309 21 3S2 2
41 2 1337 21 3S2 2
41 3 1362 21 3S2 2
41 4 1310 21 3S2 2
41 5 1390 21 3S2 2
41 6 1336 21 3S2 2
41 7 1391 21 3S2 2
41 8 1363 21 3S2 2
41 9 1365 21 3S2 2
41 10 1364 21 3S2 2
41 11 1339 21 3S2 2
41 12 1418 21 3S2 2
41 13 1419 21 3S2 2
41 14 1338 21 3S2 2
41 15 1392 21 3S2 2
43 0 1304 22 3S2 2
43 1 1331 22 3S2 2
43 2 1306 22 3S2 2
43 3 1386 22 3S2 2
43 4 1358 22 3S2 2
43 5 1387 22 3S2 2
43 6 1333 22 3S2 2
43 7 1360 22 3S2 2
43 8 1414 22 3S2 2
43 9 1332 22 3S2 2
43 10 1359 22 3S2 2
43 11 1388 22 3S2 2
43 12 1305 22 3S2 2
43 13 1389 22 3S2 2
43 14 1334 22 3S2 2
43 15 1361 22 3S2 2
45 0 1415 23 3S2 2
45 1 1442 23 3S2 2
45 2 1417 23 3S2 2
45 3 1470 23 3S2 2
45 4 1444 23 3S2 2
45 5 1498 23 3S2 2
45 6 1499 23 3S2 2
45 7 1443 23 3S2 2
45 8 1472 23 3S2 2
45 9 1471 23 3S2 2
45 10 1416 23 3S2 2
45 11 1527 23 3S2 2
45 12 1445 23 3S2 2
45 13 1500 23 3S2 2
45 14 1446 23 3S2 2
45 15 1473 23 3S2 2
47 0 1584 33 3L1 3
47 1 1555 33 3L1 3
47 2 1641 33 3L1 3
47 3 1526 33 3L1 3
47 4 1612 33 3L1 3
47 5 1582 33 3L1 3
47 6 1583 33 3L1 3
47 7 1554 33 3L1 3
47 8 1639 33 3L1 3
47 9 1610 33 3L1 3
47 10 1640 33 3L1 3
47 11 1581 33 3L1 3
47 12 1613 33 3L1 3
47 13 1611 33 3L1 3
47 14 1638 33 3L1 3
47 15 1609 33 3L1 3
49 0 1637 34 3L1 3
49 1 1608 34 3L1 3
49 2 1551 34 3L1 3
49 3 1580 34 3L1 3
49 4 1606 34 3L1 3
49 5 1578 34 3L1 3
49 6 1635 34 3L1 3
49 7 1549 34 3L1 3
49 8 1550 34 3L1 3
49 9 1579 34 3L1 3
49 10 1636 34 3L1 3
49 11 1577 34 3L1 3
49 12 1607 34 3L1 3
49 13 1576 34 3L1 3
49 14 1605 34 3L1 3
49 15 1634 34 3L1 3
51 0 1633 35 3L1 3
51 1 1604 35 3L1 3
51 2 1546 35 3L1 3
51 3 1575 35 3L1 3
51 4 1602 35 3L1 3
51 5 1573 35 3L1 3
51 6 1631 35 3L1 3
51 7 1572 35 3L1 3
51 8 1545 35 3L1 3
51 9 1574 35 3L1 3
51 10 1632 35 3L1 3
51 11 1543 35 3L1 3
51 12 1603 35 3L1 3
51 13 1544 35 3L1 3
51 14 1630 35 3L1 3
51 15 1601 35 3L1 3
53 0 1629 36 3L1 3
53 1 1600 36 3L1 3
53 2 1598 36 3L1 3
53 3 1571 36 3L1 3
53 4 1627 36 3L1 3
53 5 1542 36 3L1 3
53 6 1628 36 3L1 3
53 7 1569 36 3L1 3
53 8 1599 36 3L1 3
53 9 1568 36 3L1 3
53 10 1626 36 3L1 3
53 11 1541 36 3L1 3
53 12 1570 36 3L1 3
53 13 1539 36 3L1 3
53 14 1597 36 3L1 3
53 15 1540 36 3L1 3
55 0 1625 37 3L1 3
55 1 1596 37 3L1 3
55 2 1567 37 3L1 3
55 3 1538 37 3L1 3
55 4 1594 37 3L1 3
55 5 1565 37 3L1 3
55 6 1564 37 3L1 3
55 7 1623 37 3L1 3
55 8 1537 37 3L1 3
55 9 1624 37 3L1 3
55 10 1566 37 3L1 3
55 11 1595 37 3L1 3
55 12 1535 37 3L1 3
55 13 1622 37 3L1 3
55 14 1536 37 3L1 3
55 15 1593 37 3L1 3
57 0 1621 38 3L1 3
57 1 1592 38 3L1 3
57 2 1504 38 3L1 3
57 3 1563 38 3L1 3
57 4 1618 38 3L1 3
57 5 1532 38 3L1 3
57 6 1619 38 3L1 3
57 7 1562 38 3L1 3
57 8 1620 38 3L1 3
57 9 1533 38 3L1 3
57 10 1591 38 3L1 3
57 11 1534 38 3L1 3
57 12 1561 38 3L1 3
57 13 1590 38 3L1 3
57 14 1531 38 3L1 3
57 15 1589 38 3L1 3
59 0 1615 39 3L1 3
59 1 1617 39 3L1 3
59 2 1529 39 3L1 3
59 3 1560 39 3L1 3
59 4 1586 39 3L1 3
59 5 1558 39 3L1 3
59 6 1556 39 3L1 3
59 7 1585 39 3L1 3
59 8 1530 39 3L1 3
59 9 1588 39 3L1 3
59 10 1559 39 3L1 3
59 11 1616 39 3L1 3
59 12 1528 39 3L1 3
59 13 1614 39 3L1 3
59 14 1557 39 3L1 3
59 15 1587 39 3L1 3
61 0 1477 40 3L1 3
61 1 1505 40 3L1 3
61 2 1475 40 3L1 3
61 3 1450 40 3L1 3
61 4 1502 40 3L1 3
61 5 1422 40 3L1 3
61 6 1476 40 3L1 3
61 7 1448 40 3L1 3
61 8 1393 40 3L1 3
61 9 1421 40 3L1 3
61 10 1503 40 3L1 3
61 11 1449 40 3L1 3
61 12 1474 40 3L1 3
61 13 1447 40 3L1 3
61 14 1501 40 3L1 3
61 15 1420 40 3L1 3
63 0 1509 41 3L1 3
63 1 1481 41 3L1 3
63 2 1425 41 3L1 3
63 3 1453 41 3L1 3
63 4 1479 41 3L1 3
63 5 1395 41 3L1 3
63 6 1507 41 3L1 3
63 7 1451 41 3L1 3
63 8 1480 41 3L1 3
63 9 1424 41 3L1 3
63 10 1508 41 3L1 3
63 11 1452 41 3L1 3
63 12 1423 41 3L1 3
63 13 1394 41 3L1 3
63 14 1506 41 3L1 3
63 15 1478 41 3L1 3
65 0 1513 42 3L1 3
65 1 1485 42 3L1 3
65 2 1457 42 3L1 3
65 3 1429 42 3L1 3
65 4 1483 42 3L1 3
65 5 1455 42 3L1 3
65 6 1427 42 3L1 3
65 7 1511 42 3L1 3
65 8 1428 42 3L1 3
65 9 1484 42 3L1 3
65 10 1456 42 3L1 3
65 11 1512 42 3L1 3
65 12 1426 42 3L1 3
65 13 1510 42 3L1 3
65 14 1454 42 3L1 3
65 15 1482 42 3L1 3
67 0 1489 43 3L1 3
67 1 1517 43 3L1 3
67 2 1433 43 3L1 3
67 3 1461 43 3L1 3
67 4 1515 43 3L1 3
67 5 1459 43 3L1 3
67 6 1487 43 3L1 3
67 7 1430 43 3L1 3
67 8 1432 43 3L1 3
67 9 1460 43 3L1 3
67 10 1488 43 3L1 3
67 11 1431 43 3L1 3
67 12 1516 43 3L1 3
67 13 1458 43 3L1 3
67 14 1514 43 3L1 3
67 15 1486 43 3L1 3
69 0 1520 44 3L1 3
69 1 1492 44 3L1 3
69 2 1437 44 3L1 3
69 3 1465 44 3L1 3
69 4 1547 44 3L1 3
69 5 1436 44 3L1 3
69 6 1519 44 3L1 3
69 7 1463 44 3L1 3
69 8 1409 44 3L1 3
69 9 1464 44 3L1 3
69 10 1548 44 3L1 3
69 11 1435 44 3L1 3
69 12 1491 44 3L1 3
69 13 1462 44 3L1 3
69 14 1490 44 3L1 3
69 15 1518 44 3L1 3
71 0 1497 45 3L1 3
71 1 1469 45 3L1 3
71 2 1525 45 3L1 3
71 3 1495 45 3L1 3
71 4 1494 45 3L1 3
71 5 1468 45 3L1 3
71 6 1553 45 3L1 3
71 7 1496 45 3L1 3
71 8 1521 45 3L1 3
71 9 1466 45 3L1 3
71 10 1493 45 3L1 3
71 11 1467 45 3L1 3
71 12 1524 45 3L1 3
71 13 1552 45 3L1 3
71 14 1523 45 3L1 3
71 15 1522 45 3L1 3
73 0 1413 46 3L2 3
73 1 1357 46 3L2 3
73 2 1330 46 3L2 3
73 3 1356 46 3L2 3
73 4 1412 46 3L2 3
73 5 1329 46 3L2 3
73 6 1439 46 3L2 3
73 7 1384 46 3L2 3
73 8 1385 46 3L2 3
73 9 1411 46 3L2 3
73 10 1383 46 3L2 3
73 11 1328 46 3L2 3
73 12 1441 46 3L2 3
73 13 1440 46 3L2 3
73 14 1410 46 3L2 3
73 15 1438 46 3L2 3
75 0 1408 47 3L2 3
75 1 1381 47 3L2 3
75 2 1355 47 3L2 3
75 3 1353 47 3L2 3
75 4 1434 47 3L2 3
75 5 1326 47 3L2 3
75 6 1379 47 3L2 3
75 7 1327 47 3L2 3
75 8 1382 47 3L2 3
75 9 1380 47 3L2 3
75 10 1354 47 3L2 3
75 11 1407 47 3L2 3
75 12 1352 47 3L2 3
75 13 1406 47 3L2 3
75 14 1325 47 3L2 3
75 15 1378 47 3L2 3
77 0 1405 48 3L2 3
77 1 1324 48 3L2 3
77 2 1377 48 3L2 3
77 3 1350 48 3L2 3
77 4 1349 48 3L2 3
77 5 1348 48 3L2 3
77 6 1322 48 3L2 3
77 7 1403 48 3L2 3
77 8 1351 48 3L2 3
77 9 1404 48 3L2 3
77 10 1323 48 3L2 3
77 11 1376 48 3L2 3
77 12 1347 48 3L2 3
77 13 1321 48 3L2 3
77 14 1375 48 3L2 3
77 15 1402 48 3L2 3
79 0 1374 49 3L2 3
79 1 1401 49 3L2 3
79 2 1320 49 3L2 3
79 3 1346 49 3L2 3
79 4 1372 49 3L2 3
79 5 1345 49 3L2 3
79 6 1318 49 3L2 3
79 7 -2 49 3L2 3
79 8 1319 49 3L2 3
79 9 1373 49 3L2 3
79 10 -2 49 3L2 3
79 11 1400 49 3L2 3
79 12 1344 49 3L2 3
79 13 1399 49 3L2 3
79 14 1317 49 3L2 3
79 15 1371 49 3L2 3
81 0 1398 50 3L2 3
81 1 1370 50 3L2 3
81 2 1343 50 3L2 3
81 3 1316 50 3L2 3
81 4 1368 50 3L2 3
81 5 1341 50 3L2 3
81 6 1314 50 3L2 3
81 7 1396 50 3L2 3
81 8 1315 50 3L2 3
81 9 1397 50 3L2 3
81 10 1342 50 3L2 3
81 11 1369 50 3L2 3
81 12 1340 50 3L2 3
81 13 1313 50 3L2 3
81 14 1367 50 3L2 3
81 15 1366 50 3L2 3
83 0 1291 51 3L2 3
83 1 1264 51 3L2 3
83 2 1262 51 3L2 3
83 3 1238 51 3L2 3
83 4 1289 51 3L2 3
83 5 1211 51 3L2 3
83 6 1290 51 3L2 3
83 7 1236 51 3L2 3
83 8 1263 51 3L2 3
83 9 1184 51 3L2 3
83 10 1210 51 3L2 3
83 11 1237 51 3L2 3
83 12 1288 51 3L2 3
83 13 1235 51 3L2 3
83 14 1261 51 3L2 3
83 15 1209 51 3L2 3
85 0 1268 52 3L2 3
85 1 1294 52 3L2 3
85 2 1216 52 3L2 3
85 3 1215 52 3L2 3
85 4 1239 52 3L2 3
85 5 1214 52 3L2 3
85 6 1266 52 3L2 3
85 7 1240 52 3L2 3
85 8 1241 52 3L2 3
85 9 1267 52 3L2 3
85 10 1293 52 3L2 3
85 11 1242 52 3L2 3
85 12 1213 52 3L2 3
85 13 1292 52 3L2 3
85 14 1212 52 3L2 3
85 15 1265 52 3L2 3
87 0 1299 53 3L2 3
87 1 1298 53 3L2 3
87 2 1219 53 3L2 3
87 3 1245 53 3L2 3
87 4 1296 53 3L2 3
87 5 1270 53 3L2 3
87 6 1217 53 3L2 3
87 7 1297 53 3L2 3
87 8 1244 53 3L2 3
87 9 1272 53 3L2 3
87 10 1271 53 3L2 3
87 11 1218 53 3L2 3
87 12 1243 53 3L2 3
87 13 1269 53 3L2 3
87 14 1191 53 3L2 3
87 15 1295 53 3L2 3
89 0 1249 54 3L2 3
89 1 1222 54 3L2 3
89 2 1276 54 3L2 3
89 3 1247 54 3L2 3
89 4 1302 54 3L2 3
89 5 1195 54 3L2 3
89 6 1221 54 3L2 3
89 7 1300 54 3L2 3
89 8 1248 54 3L2 3
89 9 1274 54 3L2 3
89 10 1246 54 3L2 3
89 11 1220 54 3L2 3
89 12 1275 54 3L2 3
89 13 1301 54 3L2 3
89 14 1303 54 3L2 3
89 15 1273 54 3L2 3
91 0 1196 55 3L2 3
91 1 1144 55 3L2 3
91 2 1118 55 3L2 3
91 3 1117 55 3L2 3
91 4 1170 55 3L2 3
91 5 1142 55 3L2 3
91 6 1092 55 3L2 3
91 7 1193 55 3L2 3
91 8 1143 55 3L2 3
91 9 1141 55 3L2 3
91 10 1168 55 3L2 3
91 11 1169 55 3L2 3
91 12 1116 55 3L2 3
91 13 1194 55 3L2 3
91 14 1167 55 3L2 3
91 15 1192 55 3L2 3
93 0 1112 56 3L2 3
93 1 1062 56 3L2 3
93 2 1163 56 3L2 3
93 3 1189 56 3L2 3
93 4 1190 56 3L2 3
93 5 1114 56 3L2 3
93 6 1139 56 3L2 3
93 7 1088 56 3L2 3
93 8 1164 56 3L2 3
93 9 1138 56 3L2 3
93 10 1087 56 3L2 3
93 11 1165 56 3L2 3
93 12 1113 56 3L2 3
93 13 1166 56 3L2 3
93 14 1140 56 3L2 3
93 15 1115 56 3L2 3
95 0 1188 57 3L2 3
95 1 1162 57 3L2 3
95 2 1160 57 3L2 3
95 3 1086 57 3L2 3
95 4 1186 57 3L2 3
95 5 1137 57 3L2 3
95 6 1187 57 3L2 3
95 7 1136 57 3L2 3
95 8 1110 57 3L2 3
95 9 1085 57 3L2 3
95 10 1161 57 3L2 3
95 11 1111 57 3L2 3
95 12 1135 57 3L2 3
95 13 1185 57 3L2 3
95 14 1061 57 3L2 3
95 15 1134 57 3L2 3
97 0 1038 58 3L2 2
97 1 1039 58 3L2 2
97 2 1041 58 3L2 2
97 3 1063 58 3L2 2
97 4 1016 58 3L2 2
97 5 1064 58 3L2 2
97 6 1015 58 3L2 2
97 7 1090 58 3L2 2
97 8 1066 58 3L2 2
97 9 1065 58 3L2 2
97 10 1040 58 3L2 2
97 11 1089 58 3L2 2
97 12 1017 58 3L2 2
97 13 1067 58 3L2 2
97 14 1042 58 3L2 2
97 15 1091 58 3L2 2
99 0 941 59 3L2 1
99 1 918 59 3L2 1
99 2 988 59 3L2 1
99 3 966 59 3L2 1
99 4 1013 59 3L2 1
99 5 1014 59 3L2 1
99 6 990 59 3L2 1
99 7 965 59 3L2 1
99 8 1037 59 3L2 1
99 9 919 59 3L2 1
99 10 989 59 3L2 1
99 11 942 59 3L2 1
99 12 991 59 3L2 1
99 13 943 59 3L2 1
99 14 992 59 3L2 1
99 15 967 59 3L2 1
